('/Users/hanzhekaiscomputer/Desktop/webpages-monitor-robot/build/main_window/PKG-00.pkg',
 {'BINARY': 1,
  'DATA': 1,
  'EXECUTABLE': 1,
  'EXTENSION': 1,
  'PYMODULE': 1,
  'PYSOURCE': 1,
  'PYZ': 0},
 [('PYZ-00.pyz',
   '/Users/hanzhekaiscomputer/Desktop/webpages-monitor-robot/build/main_window/PYZ-00.pyz',
   'PYZ'),
  ('_struct',
   '/opt/anaconda3/lib/python3.8/lib-dynload/_struct.cpython-38-darwin.so',
   'EXTENSION'),
  ('zlib',
   '/opt/anaconda3/lib/python3.8/lib-dynload/zlib.cpython-38-darwin.so',
   'EXTENSION'),
  ('struct', '/opt/anaconda3/lib/python3.8/struct.pyo', 'PYMODULE'),
  ('pyimod01_os_path',
   '/opt/anaconda3/lib/python3.8/site-packages/PyInstaller/loader/pyimod01_os_path.pyc',
   'PYMODULE'),
  ('pyimod02_archive',
   '/opt/anaconda3/lib/python3.8/site-packages/PyInstaller/loader/pyimod02_archive.pyc',
   'PYMODULE'),
  ('pyimod03_importers',
   '/opt/anaconda3/lib/python3.8/site-packages/PyInstaller/loader/pyimod03_importers.pyc',
   'PYMODULE'),
  ('pyiboot01_bootstrap',
   '/opt/anaconda3/lib/python3.8/site-packages/PyInstaller/loader/pyiboot01_bootstrap.py',
   'PYSOURCE'),
  ('pyi_rth_multiprocessing',
   '/opt/anaconda3/lib/python3.8/site-packages/PyInstaller/hooks/rthooks/pyi_rth_multiprocessing.py',
   'PYSOURCE'),
  ('pyi_rth_certifi',
   '/opt/anaconda3/lib/python3.8/site-packages/_pyinstaller_hooks_contrib/hooks/rthooks/pyi_rth_certifi.py',
   'PYSOURCE'),
  ('pyi_rth_pyqt5',
   '/opt/anaconda3/lib/python3.8/site-packages/PyInstaller/hooks/rthooks/pyi_rth_pyqt5.py',
   'PYSOURCE'),
  ('pyi_rth__tkinter',
   '/opt/anaconda3/lib/python3.8/site-packages/PyInstaller/hooks/rthooks/pyi_rth__tkinter.py',
   'PYSOURCE'),
  ('pyi_rth_pkgres',
   '/opt/anaconda3/lib/python3.8/site-packages/PyInstaller/hooks/rthooks/pyi_rth_pkgres.py',
   'PYSOURCE'),
  ('main_window',
   '/Users/hanzhekaiscomputer/Desktop/webpages-monitor-robot/main_window.py',
   'PYSOURCE')],
 True,
 False,
 False,
 [])
